{
    "dialogues": 
    [
        {
            "name": "FirstDialogue",
            "lines": [
                {
                    "name": "Boy",
                    "text": "Ah, mein Kopf! Was läutet da so laut?... Wie spät ist es überhaupt?",
                    "side": 2
                },
                {
                    "name": "Boy",
                    "text": "Meine Vorlesung bei Dr. Alberti beginnt gleich... Das stundenlange Geschwafel über Sokrates halte ich mit den Kopfschmerzen doch niemals aus.",
                    "side": 2
                },
                {
                    "name": "Boy",
                    "text": "Soll ich mich wirklich mit den quälenden Fragen der Maieutik beschäftigen? Ich werfe einfach eine Münze, soll der Zufall entscheiden.",
                    "side": 2
                },
                {
                    "name": "Boy",
                    "text": "Ich befrage meine Glücksmünze! Das ist schließlich auch eine Form eines strukturierten Dialogs. Wo habe ich sie nochmal versteckt?",
                    "side": 2
                }                  
            ]
        },
	    {
            "name": "Puddle",
            "lines": [
                {
                    "name": "Boy",
                    "text": "So eine Sauerei, das gute Bier!",
                    "side": 2
                },
                {
                    "name": "Boy",
                    "text": "Ich sollte mal wieder putzen.",
                    "side": 2
                }
            ]
        },
        {
            "name": "PuddleDisguised",
            "lines": [
                {
                    "name": "Boy (verkleidet)",
                    "text": "So eine Sauerei, das gute Bier!",
                    "side": 2
                },
                {
                    "name": "Boy (verkleidet)",
                    "text": "Ich sollte mal wieder putzen.",
                    "side": 2
                }
            ]
        },
        {
            "name": "PuddleDisguised2",
            "lines": [
                {
                    "name": "Boy (nochmal verkleidet)",
                    "text": "So eine Sauerei, das gute Bier!",
                    "side": 2
                },
                {
                    "name": "Boy (nochmal verkleidet)",
                    "text": "Ich sollte mal wieder putzen.",
                    "side": 2
                }
            ]
        },
	    {
            "name": "Floorboard",
            "lines": [
                {
                    "name": "Boy",
                    "text": "Ah, mein Geheimversteck! Hier habe ich die Münzen normalerweise versteckt... Aber sie sind WEG!",
                    "side": 2
                },
                {
                    "name": "Boy",
                    "text": "Einer meiner Kommilitonen muss sie gestern bei der Party mitgenommen haben!",
                    "side": 2
                },
                {
                    "name": "Boy",
                    "text": "Vielleicht kann ich ja in ihren Zimmern nachschauen, es sind bestimmt sowieso alle bei ihren Vorlesungen.",
                    "side": 2
                }
            ]
        },
        {
            "name": "FloorboardDisguised",
            "lines": [
                {
                    "name": "Boy (verkleidet)",
                    "text": "Ah, mein Geheimversteck! Hier habe ich die Münzen normalerweise versteckt... Aber sie sind WEG!",
                    "side": 2
                },
                {
                    "name": "Boy (verkleidet)",
                    "text": "Einer meiner Kommilitonen muss sie gestern bei der Party mitgenommen haben!",
                    "side": 2
                },
                {
                    "name": "Boy (verkleidet)",
                    "text": "Vielleicht kann ich ja in ihren Zimmern nachschauen, es sind bestimmt sowieso alle bei ihren Vorlesungen.",
                    "side": 2
                }
            ]
        },
        {
            "name": "FloorboardDisguised2",
            "lines": [
                {
                    "name": "Boy (nochmal verkleidet)",
                    "text": "Ah, mein Geheimversteck! Hier habe ich die Münzen normalerweise versteckt... Aber sie sind WEG!",
                    "side": 2
                },
                {
                    "name": "Boy (nochmal verkleidet)",
                    "text": "Einer meiner Kommilitonen muss sie gestern bei der Party mitgenommen haben!",
                    "side": 2
                },
                {
                    "name": "Boy (nochmal verkleidet)",
                    "text": "Vielleicht kann ich ja in ihren Zimmern nachschauen, es sind bestimmt sowieso alle bei ihren Vorlesungen.",
                    "side": 2
                }
            ]
        },
	    {
            "name": "PokerTable",
            "lines": [
                {
                    "name": "Boy",
                    "text": "Da habe ich wohl gestern noch lange mit ein paar Kommilitonen Karten gespielt. Ich erinnere mich vage, aber diese Kopfschmerzen...",
                    "side": 2
                }
            ]
        },
        {
            "name": "PokerTableDisguised",
            "lines": [
                {
                    "name": "Boy (verkleidet)",
                    "text": "Da habe ich wohl gestern noch lange mit ein paar Kommilitonen Karten gespielt. Ich erinnere mich vage, aber diese Kopfschmerzen...",
                    "side": 2
                }
            ]
        },
        {
            "name": "PokerTableDisguised2",
            "lines": [
                {
                    "name": "Boy (nochmal verkleidet)",
                    "text": "Da habe ich wohl gestern noch lange mit ein paar Kommilitonen Karten gespielt. Ich erinnere mich vage, aber diese Kopfschmerzen...",
                    "side": 2
                }
            ]
        },
	    {
            "name": "Coat1",
            "lines": [
                {
                    "name": "Boy",
                    "text": "Da hat jemand seine Jacke vergessen...",
                    "side": 2
                },
		{
                    "name": "Boy",
                    "text": "Wem die wohl gehört?",
                    "side": 2
                }
            ]
        },
	    {
            "name": "CoatSearch1",
            "lines": [
                {
                    "name": "Boy",
                    "text": "Da ist doch was in der Jackentasche.",
                    "side": 2
                }
            ]
        },
        {
            "name": "CoatSearch2",
            "lines": [
                {
                    "name": "Boy",
                    "text": "Mehr sehe ich hier nicht.",
                    "side": 2
                }
            ]
        },
        {
            "name": "CoatSearch2Disguised",
            "lines": [
                {
                    "name": "Boy (verkleidet)",
                    "text": "Mehr sehe ich hier nicht.",
                    "side": 2
                }
            ]
        },
        {
            "name": "CoatSearch2Disguised2",
            "lines": [
                {
                    "name": "Boy (nochmal verkleidet)",
                    "text": "Mehr sehe ich hier nicht.",
                    "side": 2
                }
            ]
        },
	    {
            "name": "MatriculationRegister",
            "lines": [
                {
                    "name": "Boy",
                    "text": "Ah ja, das Matrikelbuch, das ich mit einem Kommilitonen aus dem Archiv gestohlen habe. Sehr informativ!",
                    "side": 2
                }
            ]
        },

	    {
            "name": "Cupboard1",
            "lines": [
                {
                    "name": "Boy",
                    "text": "Hemden, Jacken, die Socken von letztem Weihnachten. Ein Kleiderschrank voller Kleider, wer hätte es gedacht? Aber meine Münzen sind nirgendwo zu finden.",
                    "side": 2
                }
            ]
        },
        {
            "name": "Cupboard1Disguised",
            "lines": [
                {
                    "name": "Boy (verkleidet)",
                    "text": "Hemden, Jacken, die Socken von letztem Weihnachten. Ein Kleiderschrank voller Kleider, wer hätte es gedacht? Aber meine Münzen sind nirgendwo zu finden.",
                    "side": 2
                }
            ]
        },
        {
            "name": "Cupboard1Disguised2",
            "lines": [
                {
                    "name": "Boy (nochmal verkleidet)",
                    "text": "Hemden, Jacken, die Socken von letztem Weihnachten. Ein Kleiderschrank voller Kleider, wer hätte es gedacht? Aber meine Münzen sind nirgendwo zu finden.",
                    "side": 2
                }
            ]
        },
	    {
            "name": "Cupboard2",
            "lines": [
                {
                    "name": "Boy",
                    "text": "Hier sollte ich doch eine Verkleidung finden.",
                    "side": 2
                },
		{
                    "name": "Boy (verkleidet)",
                    "text": "Ja, so erkennt mich niemand. Oder zumindest für den Hausmeister sollte es reichen.",
                    "side": 2
                }
            ]
        },
	    {
            "name": "DoorLocked",
            "lines": [
                {
                    "name": "Boy",
                    "text": "Da geht's zum Flur, aber ich habe keine Ahnung, wo ich hingehen soll.",
                    "side": 2
                }
            ]
        },
	    {
            "name": "Picture",
            "lines": [
                {
                    "name": "Boy",
                    "text": "Das Schiff, auf dem mein alter Herr Kapitän ist. Ist sie nicht schön?",
                    "side": 2
                }
            ]
        },
        {
            "name": "PictureDisguised",
            "lines": [
                {
                    "name": "Boy (verkleidet)",
                    "text": "Das Schiff, auf dem mein alter Herr Kapitän ist. Ist sie nicht schön?",
                    "side": 2
                }
            ]
        },
        {
            "name": "PictureDisguised2",
            "lines": [
                {
                    "name": "Boy (nochmal verkleidet)",
                    "text": "Das Schiff, auf dem mein alter Herr Kapitän ist. Ist sie nicht schön?",
                    "side": 2
                }
            ]
        },
	    {
            "name": "Chair",
            "lines": [
                {
                    "name": "Boy",
                    "text": "Wer hat meinem Stuhl das angetan?",
                    "side": 2
                }
            ]
        },
	    {
            "name": "ChairDisguised",
            "lines": [
                {
                    "name": "Boy (verkleidet)",
                    "text": "Wer hat meinem Stuhl das angetan?",
                    "side": 2
                }
            ]
        },
	    {
            "name": "ChairDisguised2",
            "lines": [
                {
                    "name": "Boy (nochmal verkleidet)",
                    "text": "Wer hat meinem Stuhl das angetan?",
                    "side": 2
                }
            ]
        }
    ]
}
